[31m[1mCMake Error[0m at /home/tessarekh/catkin_ws/src/using_markers/CMakeLists.txt:135 (add_executable):
  Cannot find source file:

    src/basic_shapes.cpp

  Tried extensions .c .C .c++ .cc .cpp .cxx .cu .m .M .mm .h .hh .h++ .hm
  .hpp .hxx .in .txx


[31m[1mCMake Error[0m at /home/tessarekh/catkin_ws/src/using_markers/CMakeLists.txt:135 (add_executable):
  No SOURCES given to target: basic_shapes


CMake Generate step failed.  Build files cannot be regenerated correctly.
