Linked: (/home/tessarekh/catkin_ws/devel/.private/using_markers/share/using_markers/cmake/using_markersConfig.cmake, /home/tessarekh/catkin_ws/devel/share/using_markers/cmake/using_markersConfig.cmake)
Linked: (/home/tessarekh/catkin_ws/devel/.private/using_markers/share/using_markers/cmake/using_markersConfig-version.cmake, /home/tessarekh/catkin_ws/devel/share/using_markers/cmake/using_markersConfig-version.cmake)
Linked: (/home/tessarekh/catkin_ws/devel/.private/using_markers/lib/pkgconfig/using_markers.pc, /home/tessarekh/catkin_ws/devel/lib/pkgconfig/using_markers.pc)
Linked: (/home/tessarekh/catkin_ws/devel/.private/using_markers/lib/using_markers/basic_shapes, /home/tessarekh/catkin_ws/devel/lib/using_markers/basic_shapes)
